<?xml version="1.0" standalone="no"?>
<!DOCTYPE svg PUBLIC "-//W3C//DTD SVG 20010904//EN"
 "http://www.w3.org/TR/2001/REC-SVG-20010904/DTD/svg10.dtd">
<svg version="1.0" xmlns="http://www.w3.org/2000/svg"
 width="260.000000pt" height="260.000000pt" viewBox="0 0 260.000000 260.000000"
 preserveAspectRatio="xMidYMid meet">
<metadata>
Created by potrace 1.11, written by Peter Selinger 2001-2013
</metadata>
<g transform="translate(0.000000,260.000000) scale(0.100000,-0.100000)"
fill="#000000" stroke="none">
<path d="M95 2589 c-5 -5 -21 -20 -35 -33 -14 -12 -33 -32 -42 -44 -20 -24
-24 -76 -8 -95 6 -7 19 -24 30 -38 10 -14 170 -115 354 -224 l335 -198 3 -587
3 -587 28 -36 c31 -40 89 -64 132 -53 44 11 96 67 104 111 4 22 7 310 6 640 0
654 1 642 -57 685 -18 13 -194 119 -392 236 -199 117 -366 218 -373 224 -15
13 -75 12 -88 -1z"/>
<path d="M2415 2589 c-5 -5 -173 -106 -372 -223 -199 -118 -373 -222 -387
-233 -57 -41 -56 -26 -56 -711 l0 -629 23 -34 c52 -78 142 -89 203 -24 17 18
34 48 38 65 3 18 6 286 6 595 l0 562 335 198 c185 109 344 209 355 224 11 14
24 31 30 38 16 19 12 71 -7 94 -51 63 -88 89 -126 89 -17 -1 -36 -5 -42 -11z"/>
<path d="M1255 2456 c-41 -18 -73 -56 -85 -97 -11 -38 -14 -2185 -4 -2239 6
-28 41 -71 87 -107 17 -14 87 -18 87 -5 0 4 14 15 31 24 18 11 38 36 50 62 19
44 19 69 17 1160 -3 1108 -3 1115 -24 1142 -46 62 -106 85 -159 60z"/>
</g>
</svg>
